<svg xmlns="http://www.w3.org/2000/svg" width="10" height="19">
 <defs>
  <clipPath>
   <rect width="10" height="19" x="20" y="1033.36" opacity="0.12" fill="#b5cabb" color="#eeeeee"/>
  </clipPath>
 </defs>
 <g transform="translate(0,-1033.3622)">
  <rect width="4" height="8" x="2" y="1039.36" rx="0.5" fill="#000000"/>
 </g>
</svg>
